[
    {"id":244895,
     "iid":13,
     "project_id":87377,
     "title":"Table Dependencies (Don't Close)",
     "description":"| Table depends on | Acronym | SAV | SACMV | TAV | TAMV | SRV | SRCM | SRPM | SASMV |\n| -- | -- | -- | -- | -- | -- | -- | -- | -- | -- | \n| PUB_SUM_ALLOCATION_V | PSAV | x |\n| SUM_ALLOCATION_V | SAV | | x |\n| SUM_ALLOCATION_COMPLEX_MV | SACMV |\n| PUB_TOTAL_ALLOCATION_V | PTAV | | | x |\n| TOTAL_ALLOCATION_V | TAV | | | | x |\n| TOTAL_ALLOCATION_MV | TAMV |\n| PUB_SUM_REQUIREMENT_V | PSRV | | | | | x |\n| SUM_REQUIREMENT_V | SRV | | | | | | x | x | x |\n| SUM_REQUIREMENT_COMPLEX_M | SRCM |\n| SUM_REQUIREMENT_PREDEFINED_M | SRPM |\n| SUM_ALLOCATION_SHIFT_MV | SASMV | x |",
     "state":"opened",
     "created_at":"2023-01-27T09:01:18.007+01:00",
     "updated_at":"2023-01-28T08:52:54.051+01:00",
     "closed_at":null,
     "closed_by":null,
     "labels":["Database"],
     "milestone":{
        "id":8082,
        "iid":3,
        "project_id":87377,
        "title":"Tasks",
        "description":"",
        "state":"active",
        "created_at":"2021-12-13T17:51:26.365+01:00",
        "updated_at":"2021-12-13T17:51:26.365+01:00",
        "due_date":null,
        "start_date":"2021-12-13",
        "expired":null,
        "web_url":"https://gitlab.cern.ch/atlas-otp/atlasotp/-/milestones/3"
        },
     "assignees":[],
     "author":{
        "id":1070,
        "username":"duns",
        "name":"Mark Donszelmann",
        "state":"active",
        "avatar_url":null,
        "web_url":"https://gitlab.cern.ch/duns"
        },
     "type":"ISSUE",
     "assignee":null,
     "user_notes_count":0,
     "merge_requests_count":0,
     "upvotes":0,"downvotes":0,
     "due_date":null,
     "confidential":false,
     "discussion_locked":null,
     "issue_type":"issue",
     "web_url":"https://gitlab.cern.ch/atlas-otp/atlasotp/-/issues/13",
     "time_stats":{
        "time_estimate":0,
        "total_time_spent":0,
        "human_time_estimate":null,
        "human_total_time_spent":null
        },
     "task_completion_status":{
        "count":0,
        "completed_count":0
        },
     "weight":null,
     "blocking_issues_count":0,
     "has_tasks":false,
     "_links":{
        "self":"https://gitlab.cern.ch/api/v4/projects/87377/issues/13",
        "notes":"https://gitlab.cern.ch/api/v4/projects/87377/issues/13/notes",
        "award_emoji":"https://gitlab.cern.ch/api/v4/projects/87377/issues/13/award_emoji",
        "project":"https://gitlab.cern.ch/api/v4/projects/87377",
        "closed_as_duplicate_of":null
        },
     "references":{
        "short":"#13",
        "relative":"#13",
        "full":"atlas-otp/atlasotp#13"
        },
     "severity":"UNKNOWN","moved_to_id":null,"service_desk_reply_to":null,"epic_iid":null,"epic":null,"iteration":null},{"id":244003,"iid":8,"project_id":87377,"title":"Remove need for clusters to be \u003e1000 and use is_cluster","description":"also look at need for cluster_id of a top-level cluster to be same as id, why ?","state":"opened","created_at":"2023-01-16T13:45:04.297+01:00","updated_at":"2023-01-16T13:46:57.731+01:00","closed_at":null,"closed_by":null,"labels":["Database"],"milestone":{"id":8082,"iid":3,"project_id":87377,"title":"Tasks","description":"","state":"active","created_at":"2021-12-13T17:51:26.365+01:00","updated_at":"2021-12-13T17:51:26.365+01:00","due_date":null,"start_date":"2021-12-13","expired":null,"web_url":"https://gitlab.cern.ch/atlas-otp/atlasotp/-/milestones/3"},"assignees":[],"author":{"id":1070,"username":"duns","name":"Mark Donszelmann","state":"active","avatar_url":null,"web_url":"https://gitlab.cern.ch/duns"},"type":"ISSUE","assignee":null,"user_notes_count":0,"merge_requests_count":0,"upvotes":0,"downvotes":0,"due_date":null,"confidential":false,"discussion_locked":null,"issue_type":"issue","web_url":"https://gitlab.cern.ch/atlas-otp/atlasotp/-/issues/8","time_stats":{"time_estimate":0,"total_time_spent":0,"human_time_estimate":null,"human_total_time_spent":null},"task_completion_status":{"count":0,"completed_count":0},"weight":null,"blocking_issues_count":0,"has_tasks":false,"_links":{"self":"https://gitlab.cern.ch/api/v4/projects/87377/issues/8","notes":"https://gitlab.cern.ch/api/v4/projects/87377/issues/8/notes","award_emoji":"https://gitlab.cern.ch/api/v4/projects/87377/issues/8/award_emoji","project":"https://gitlab.cern.ch/api/v4/projects/87377","closed_as_duplicate_of":null},"references":{"short":"#8","relative":"#8","full":"atlas-otp/atlasotp#8"},"severity":"UNKNOWN","moved_to_id":null,"service_desk_reply_to":null,"epic_iid":null,"epic":null,"iteration":null}]
